EMT Children - VR Children EMT test Reports
…
Note

There are a few possible explanations of the effect of age being reversed.

The data are missing the time component, so we do not kno how long it actually took the children to answer or how much they moved in the environemnt

It is possible, that the researcher might have been more supportive with the younger children

Finally, it is possible that the researcher might have removed the cognitive load for the task for the young children (as is suggested in the thesis, that the reearcher kept helping children unable to control the environment on their own), but information about whom has been helped is missing.

Total error

We then looked at the mean relative accuracy in all trials as the effect of age.

# A tibble: 141 × 17
# Groups:   name, age_months, error_type [141]
   error_type            name  age_month all_trials_error all_trials_avg_relat…¹
   <chr>                 <chr>     <dbl>            <dbl>                  <dbl>
 1 incorrect_object_ord… Adél…        72                5                 0.333 
 2 incorrect_placement   Adél…        72                6                 0.478 
 3 selection             Adél…        72                0                 0     
 4 incorrect_object_ord… Alen…        71                6                 0.467 
 5 incorrect_placement   Alen…        71                1                 0.0833
 6 selection             Alen…        71                0                 0     
 7 incorrect_object_ord… Alfo…        74                9                 0.756 
 8 incorrect_placement   Alfo…        74                1                 0.0667
 9 selection             Alfo…        74                0                 0     
10 incorrect_object_ord… Alia         69                6                 0.533 
# ℹ 131 more rows
# ℹ abbreviated name: ¹​all_trials_avg_relative_error
# ℹ 12 more variables: all_trials_avg_relative_correct <dbl>, school <chr>,
#   gender <chr>, age_year <dbl>, birthday <dttm>, testing_date <chr>,
#   age_months <dbl>, difficulty <dbl>, error_value <dbl>,
#   relative_error_value <dbl>, made_error <lgl>, relative_correct <dbl>
…
